{
     apps: [
	{
          	name: "Free Classic Movies",
	    	description: "Watch free classic movies and TV shows",
          	id: "com.hieulelele.freeclassicmovie",
          	image: "https://i.imgur.com/XyXrWa4.png"
          },
	 {
          	name: "Free Classic Audiobooks",
	    	description: "Read and Listen to over 10,000 English Books and Audio Books for free.",
          	id: "com.hieulelele.bookaudio",
          	image: "https://i.imgur.com/7Fpafis.png"
          },
	 {
          	name: "Daily Funny Pics & Gifs",
	    	description: "Enjoy funny pictures, gifs and videos for free.",
          	id: "com.hieulelele.dailyfunnypics",
          	image: "https://i.imgur.com/E0tJIlr.png"
          },
	 {
          	name: "Astronomy Quotes",
	    	description: "Best famous quotes about astronomy, sky and universe.",
          	id: "com.hieulele.astronomyquotes",
          	image: "https://i.imgur.com/VCBhmBr.png"
          },
	  {
          	name: "Cosplay Quiz For LOL",
	    	description: "Best Cosplay Quiz for League of Legends Games",
          	id: "com.hieulelele.cosplayquizlol",
          	image: "https://i.imgur.com/TXesKu2.png"
          }
	]    
}
